1.400000000000000000e+01 6.915781783296639333e+03 6.310574547641251684e+02
1.500000000000000000e+01 6.745313086327240853e+03 5.775935240198845122e+02
1.600000000000000000e+01 6.566329901081044227e+03 5.178870750892770047e+02
1.700000000000000000e+01 6.383571847144930871e+03 4.613872482162816482e+02
1.800000000000000000e+01 6.199240575859219462e+03 4.129741036534766181e+02
1.900000000000000000e+01 6.014845963946375377e+03 3.758110740796369100e+02
2.000000000000000000e+01 5.831618251880282514e+03 3.513768296587168720e+02
2.100000000000000000e+01 5.650644846241974847e+03 3.390333566225858135e+02
2.200000000000000000e+01 5.472920169806834565e+03 3.360207477618959615e+02
2.300000000000000000e+01 5.299373442803846046e+03 3.383189756911190216e+02
2.400000000000000000e+01 5.130877252164393212e+03 3.417418336189719525e+02
2.500000000000000000e+01 4.968213444708222596e+03 3.427529475347858465e+02
2.600000000000000000e+01 4.811656864862423390e+03 3.396577874992370880e+02
2.700000000000000000e+01 4.661220634117594273e+03 3.322311796863359064e+02
2.800000000000000000e+01 4.516948001089886930e+03 3.207846300934796773e+02
2.900000000000000000e+01 4.378909078734484865e+03 3.059056169704805939e+02
3.000000000000000000e+01 4.247184877957302888e+03 2.883320515628023486e+02
3.100000000000000000e+01 4.121860534413955065e+03 2.688844183814658209e+02
3.200000000000000000e+01 4.003020223364694630e+03 2.484315352850373415e+02
3.300000000000000000e+01 3.890743313173803472e+03 2.278725786309057639e+02
3.400000000000000000e+01 3.785108599500146738e+03 2.081236524737826983e+02
3.500000000000000000e+01 3.686182317654053350e+03 1.900909306545636070e+02
3.600000000000000000e+01 3.594009863610958746e+03 1.746056965788732214e+02
3.700000000000000000e+01 3.508643548478340108e+03 1.623289284083573421e+02
3.800000000000000000e+01 3.430098626836408584e+03 1.535856278390874934e+02
3.900000000000000000e+01 3.358391329592945567e+03 1.482560544364366137e+02
4.000000000000000000e+01 3.293520515045051070e+03 1.457475138124661385e+02
4.100000000000000000e+01 3.235457635911622219e+03 1.451184995806130473e+02
4.200000000000000000e+01 3.184170355635862506e+03 1.452932627973015940e+02
4.300000000000000000e+01 3.139414332072086381e+03 1.453263389921200996e+02
4.400000000000000000e+01 3.100439342306017807e+03 1.446992601292280938e+02
4.500000000000000000e+01 3.066476499943673844e+03 1.431666037417592463e+02
4.600000000000000000e+01 3.036811740092417494e+03 1.406470399498419965e+02
4.700000000000000000e+01 3.010785576674275489e+03 1.371643598404006639e+02
4.800000000000000000e+01 2.987785452711302241e+03 1.328097549035287841e+02
4.900000000000000000e+01 2.967247998606291276e+03 1.277150167098186273e+02
5.000000000000000000e+01 2.948658442441117131e+03 1.220352469480746720e+02
5.100000000000000000e+01 2.931547225690135292e+03 1.159383818693725203e+02
5.200000000000000000e+01 2.915488340243544826e+03 1.095979247982784699e+02
5.300000000000000000e+01 2.900097693635575069e+03 1.031878282760426089e+02
5.400000000000000000e+01 2.885031488780224663e+03 9.687838476984265412e+01
5.500000000000000000e+01 2.869984607447329836e+03 9.083216511335265864e+01
5.600000000000000000e+01 2.854688989129404490e+03 8.519915452117692212e+01
5.700000000000000000e+01 2.838911866998492314e+03 8.011055730119554141e+01
5.800000000000000000e+01 2.822454330034473969e+03 7.567058981985829291e+01
5.900000000000000000e+01 2.805149762558389284e+03 7.194756953488584372e+01
6.000000000000000000e+01 2.786861874834674836e+03 6.896625028764455578e+01
6.100000000000000000e+01 2.767483081365051021e+03 6.670355873575960004e+01
6.200000000000000000e+01 2.746932769024529080e+03 6.509062065468044977e+01
6.300000000000000000e+01 2.725155541802708285e+03 6.402158111807544572e+01
6.400000000000000000e+01 2.702119442532620269e+03 6.336730477285221497e+01
6.500000000000000000e+01 2.677814152247145103e+03 6.299043250721113196e+01
6.600000000000000000e+01 2.652249167923155710e+03 6.275844879167431856e+01
6.700000000000000000e+01 2.625451959357890701e+03 6.255289347010338474e+01
6.800000000000000000e+01 2.597485724817002847e+03 6.227844721124277783e+01
6.900000000000000000e+01 2.568539777731340564e+03 6.188598956225419556e+01
7.000000000000000000e+01 2.538834487908442497e+03 6.135681385720825887e+01
7.100000000000000000e+01 2.508571439476292198e+03 6.068760056500523348e+01
7.200000000000000000e+01 2.477933956365659469e+03 5.988534055576624127e+01
7.300000000000000000e+01 2.447087712822079993e+03 5.896363651923002180e+01
7.400000000000000000e+01 2.416181302489562313e+03 5.794003060447310816e+01
7.500000000000000000e+01 2.385346759659164491e+03 5.683408874036808101e+01
7.600000000000000000e+01 2.354700026028515367e+03 5.566603600591255940e+01
7.700000000000000000e+01 2.324341356350352271e+03 5.445579185730279903e+01
7.800000000000000000e+01 2.294355656829620330e+03 5.322229644457093656e+01
7.900000000000000000e+01 2.264812751304677477e+03 5.198305096485236731e+01
8.000000000000000000e+01 2.235767719051491895e+03 5.075382476721368619e+01
8.100000000000000000e+01 2.207260742863258656e+03 4.954847600462210266e+01
8.200000000000000000e+01 2.179317117460660029e+03 4.837885657024609998e+01
8.300000000000000000e+01 2.151947526715126514e+03 4.725483306781733006e+01
8.400000000000000000e+01 2.125147894382228060e+03 4.618436117081413528e+01
8.500000000000000000e+01 2.098899368672465243e+03 4.517362780248738829e+01
8.600000000000000000e+01 2.073168378181850130e+03 4.422725388190592355e+01
8.700000000000000000e+01 2.047906833403786322e+03 4.334855301982151587e+01
8.800000000000000000e+01 2.023052561582159797e+03 4.253984023689125848e+01
8.900000000000000000e+01 1.998530072264547016e+03 4.180278360754000033e+01
9.000000000000000000e+01 1.974251847078346600e+03 4.113885023950373210e+01
9.100000000000000000e+01 1.950119362341552687e+03 4.054949519509176525e+01
9.200000000000000000e+01 1.926025949456366106e+03 4.003674185937412489e+01
9.300000000000000000e+01 1.902700921495079683e+03 3.961667051859824795e+01
9.400000000000000000e+01 1.878347726212910629e+03 3.926343456894990425e+01
9.500000000000000000e+01 1.853688386183873718e+03 3.899876061554390105e+01
9.600000000000000000e+01 1.828608081683166802e+03 3.882947626923127871e+01
9.700000000000000000e+01 1.802997692826058255e+03 3.876346662373934038e+01
9.800000000000000000e+01 1.776754332489765602e+03 3.880979438531505821e+01
9.900000000000000000e+01 1.749783291983455001e+03 3.897820054627007380e+01
1.000000000000000000e+02 1.721998583858775191e+03 3.927866760729936857e+01
1.010000000000000000e+02 1.693324414579989934e+03 3.972065690585887410e+01
1.020000000000000000e+02 1.663696806765293104e+03 4.031221550657800634e+01
1.030000000000000000e+02 1.633061844179185755e+03 4.105955977951472846e+01
1.040000000000000000e+02 1.601375369519347259e+03 4.196643421475476998e+01
1.050000000000000000e+02 1.568605854865083529e+03 4.303307427243203165e+01
1.060000000000000000e+02 1.534733570063034449e+03 4.425588092770231441e+01
1.070000000000000000e+02 1.499748632193771982e+03 4.562736430714246438e+01
1.080000000000000000e+02 1.463652620770188150e+03 4.713569142143457213e+01
1.090000000000000000e+02 1.426461603101309493e+03 4.876428130760328372e+01
1.100000000000000000e+02 1.388201296791361074e+03 5.049237000283702059e+01
1.110000000000000000e+02 1.348910820110160557e+03 5.229458109760744122e+01
1.120000000000000000e+02 1.308644460174577716e+03 5.414094437476721566e+01
1.130000000000000000e+02 1.267467127083628611e+03 5.599706209350473785e+01
1.140000000000000000e+02 1.225461640675949411e+03 5.782386358056047015e+01
1.150000000000000000e+02 1.182724309801473055e+03 5.957757606866103828e+01
1.160000000000000000e+02 1.139367794491762425e+03 6.120946719239867662e+01
1.170000000000000000e+02 1.095522342947638890e+03 6.266614639847423263e+01
1.180000000000000000e+02 1.051306457285204715e+03 6.390054806770595519e+01
1.190000000000000000e+02 1.006801021740634951e+03 6.488677975146354981e+01
1.200000000000000000e+02 9.620848318059440771e+02 6.560298937039389955e+01
1.210000000000000000e+02 9.172412840221277293e+02 6.603152005567639549e+01
1.220000000000000000e+02 8.723567775253673062e+02 6.615683963263926159e+01
1.230000000000000000e+02 8.275212899642908724e+02 6.596744489266626488e+01
1.240000000000000000e+02 7.828279028783964577e+02 6.545481350974425538e+01
1.250000000000000000e+02 7.383730664588945274e+02 6.461369217306345547e+01
1.260000000000000000e+02 6.942554767613538615e+02 6.344324721704555259e+01
1.270000000000000000e+02 6.505777190318361818e+02 6.194544752354353534e+01
1.280000000000000000e+02 6.074443002257189619e+02 6.012700940363936297e+01
1.290000000000000000e+02 5.649621651440338610e+02 5.799877355027888370e+01
1.300000000000000000e+02 5.232417432194938556e+02 5.557554936997591000e+01
1.310000000000000000e+02 4.823958766264207156e+02 5.287690516425731602e+01
1.320000000000000000e+02 4.425386499933310915e+02 4.992752023543338424e+01
1.330000000000000000e+02 4.037873663629334260e+02 4.675678473962252468e+01
1.340000000000000000e+02 3.662617526343131544e+02 4.339932030860307322e+01
1.350000000000000000e+02 3.300841122005093666e+02 3.989519507304235191e+01
1.360000000000000000e+02 2.953795564632027322e+02 3.629017868199200336e+01
1.370000000000000000e+02 2.622741979117659525e+02 3.263603485031015339e+01
1.380000000000000000e+02 2.308975264638575027e+02 2.899059791369281314e+01
1.390000000000000000e+02 2.013816688748243848e+02 2.541811916517601944e+01
1.400000000000000000e+02 1.738615347425999857e+02 2.198953219920813851e+01
1.410000000000000000e+02 1.484754747885926918e+02 1.878250638052417187e+01
1.420000000000000000e+02 1.253522078100612589e+02 1.584998359466089290e+01
1.430000000000000000e+02 1.045951906019717939e+02 1.318918942199019284e+01
1.440000000000000000e+02 8.630586053321739826e+01 1.079989190487922457e+01
1.450000000000000000e+02 7.058641521073970182e+01 8.728960536958705774e+00
1.460000000000000000e+02 5.754323090420954401e+01 7.184994084762327482e+00
1.470000000000000000e+02 4.727485515312677222e+01 6.723598609689748429e+00
1.480000000000000000e+02 3.989406424522805850e+01 8.030596542777738378e+00
1.490000000000000000e+02 3.550489986527163921e+01 1.117109774757152429e+01
1.500000000000000000e+02 3.422405528365644045e+01 1.590746866436472295e+01
1.510000000000000000e+02 3.617446173453357261e+01 2.219830625705418470e+01
1.520000000000000000e+02 4.148369955945036480e+01 3.017833657795816293e+01
1.530000000000000000e+02 5.029415877343643615e+01 4.007761798646481566e+01
1.540000000000000000e+02 6.276978126562445226e+01 5.218797707012187459e+01
1.550000000000000000e+02 7.908759372872944482e+01 6.684584463555555089e+01
1.560000000000000000e+02 9.946747814988334824e+01 8.445097269526610262e+01
1.570000000000000000e+02 1.241664474650959562e+02 1.054683368977006523e+02
1.580000000000000000e+02 1.533333337480076750e+02 1.302430087317140419e+02
1.590000000000000000e+02 1.866121594144746325e+02 1.585104067978230660e+02
1.600000000000000000e+02 2.234862855118369680e+02 1.898316923257617930e+02
1.610000000000000000e+02 2.633766051239564945e+02 2.237149655746715950e+02
1.620000000000000000e+02 3.055962923329581713e+02 2.595768291068720828e+02
1.630000000000000000e+02 3.492904985148010155e+02 2.966911651625480317e+02
1.640000000000000000e+02 3.932738116242830415e+02 3.340510718008006279e+02
1.650000000000000000e+02 4.355619666552267404e+02 3.699710926488295399e+02
