1.400000000000000000e+01 7.764132435437936692e+03 4.066534439370464042e+02
1.500000000000000000e+01 7.425671964050734459e+03 4.025545039174089652e+02
1.600000000000000000e+01 7.127093196376811647e+03 4.250561279627441991e+02
1.700000000000000000e+01 6.851184406869668237e+03 4.513852857702232200e+02
1.800000000000000000e+01 6.592963796388383344e+03 4.715670729891536439e+02
1.900000000000000000e+01 6.350689460768001481e+03 4.807669082772574711e+02
2.000000000000000000e+01 6.123356545404897588e+03 4.773579170010157213e+02
2.100000000000000000e+01 5.908886227503102418e+03 4.635476063565092772e+02
2.200000000000000000e+01 5.705641160716971171e+03 4.421342688538375683e+02
2.300000000000000000e+01 5.512557151166985932e+03 4.156943622724421630e+02
2.400000000000000000e+01 5.328928289648498321e+03 3.866261678616074278e+02
2.500000000000000000e+01 5.154266592443666923e+03 3.571993349415112107e+02
2.600000000000000000e+01 4.988246834102580578e+03 3.295558184768800629e+02
2.700000000000000000e+01 4.830643400789595944e+03 3.056346109874817785e+02
2.800000000000000000e+01 4.681301002712502850e+03 2.869776234243549311e+02
2.900000000000000000e+01 4.540122565450365073e+03 2.744532449351331707e+02
3.000000000000000000e+01 4.407044604706136852e+03 2.679978453102119147e+02
3.100000000000000000e+01 4.282015242867011693e+03 2.665768961344827517e+02
3.200000000000000000e+01 4.165002900808081904e+03 2.684622360801269565e+02
3.300000000000000000e+01 4.055981362781347798e+03 2.716377938294519367e+02
3.400000000000000000e+01 3.954925109768295442e+03 2.741541097258053128e+02
3.500000000000000000e+01 3.861673614141645885e+03 2.744788140669161294e+02
3.600000000000000000e+01 3.775512683980456131e+03 2.720795252572220306e+02
3.700000000000000000e+01 3.695642531325093842e+03 2.669536275311258464e+02
3.800000000000000000e+01 3.621330504586314419e+03 2.593288094941958661e+02
3.900000000000000000e+01 3.551901556422204521e+03 2.495685031478543578e+02
4.000000000000000000e+01 3.486717623659672881e+03 2.381215282910349060e+02
4.100000000000000000e+01 3.425205230823246438e+03 2.254752801606028356e+02
4.200000000000000000e+01 3.366820279083494825e+03 2.121461412578961188e+02
4.300000000000000000e+01 3.311072045770041768e+03 1.986566898951300288e+02
4.400000000000000000e+01 3.257501257700570022e+03 1.855250243194964526e+02
4.500000000000000000e+01 3.205693871139780185e+03 1.732476025402148423e+02
4.600000000000000000e+01 3.155265352040849848e+03 1.622678266520462387e+02
4.700000000000000000e+01 3.105872605536324954e+03 1.529493019124972193e+02
4.800000000000000000e+01 3.057200481154849058e+03 1.455162877670154273e+02
4.900000000000000000e+01 3.008969421690627769e+03 1.400279220777495937e+02
5.000000000000000000e+01 2.960929604296060461e+03 1.363508565445571890e+02
5.100000000000000000e+01 2.912861250538313016e+03 1.341771388930622493e+02
5.200000000000000000e+01 2.864572705158993813e+03 1.330806715089269119e+02
5.300000000000000000e+01 2.815900466232755662e+03 1.325748254736839726e+02
5.400000000000000000e+01 2.766707132142472801e+03 1.321806499163840556e+02
5.500000000000000000e+01 2.716910593019177668e+03 1.314842287132575507e+02
5.600000000000000000e+01 2.666640469577779186e+03 1.302684528642591317e+02
5.700000000000000000e+01 2.616090547113838511e+03 1.284527041918741475e+02
5.800000000000000000e+01 2.565441403522469500e+03 1.260236887130435548e+02
5.900000000000000000e+01 2.514860349405309080e+03 1.230142246456470474e+02
6.000000000000000000e+01 2.464501529373498670e+03 1.194835146779115149e+02
6.100000000000000000e+01 2.414507048944988583e+03 1.155074347246975890e+02
6.200000000000000000e+01 2.365005781405625385e+03 1.111718426303082197e+02
6.300000000000000000e+01 2.316115849413024534e+03 1.065653700230828065e+02
6.400000000000000000e+01 2.267944304692831793e+03 1.017771880150776553e+02
6.500000000000000000e+01 2.220585625565990995e+03 9.689460499816851780e+01
6.600000000000000000e+01 2.174125744840815969e+03 9.200089763961588574e+01
6.700000000000000000e+01 2.128639977137465849e+03 8.717469155874083242e+01
6.800000000000000000e+01 2.084192367434191965e+03 8.248864271445599172e+01
6.900000000000000000e+01 2.040840479945219613e+03 7.800932548117965837e+01
7.000000000000000000e+01 1.998630827723731272e+03 7.379572562960991888e+01
7.100000000000000000e+01 1.957600817944301070e+03 6.989838150957781693e+01
7.200000000000000000e+01 1.917783225296348519e+03 6.635960426953795377e+01
7.300000000000000000e+01 1.879198119130088571e+03 6.320984375489169338e+01
7.400000000000000000e+01 1.841860340986273968e+03 6.046863426811395215e+01
7.500000000000000000e+01 1.805778714730175807e+03 5.814351541019070169e+01
7.600000000000000000e+01 1.770950595590125886e+03 5.622786740066478472e+01
7.700000000000000000e+01 1.737370836391395414e+03 5.470437528785925707e+01
7.800000000000000000e+01 1.705023908839147452e+03 5.354399543551699736e+01
7.900000000000000000e+01 1.673888140391985416e+03 5.270974795209509267e+01
8.000000000000000000e+01 1.643936861314844919e+03 5.215981813464126304e+01
8.100000000000000000e+01 1.615132128510501161e+03 5.184918401410484279e+01
8.200000000000000000e+01 1.587433977997832926e+03 5.173439331900156191e+01
8.300000000000000000e+01 1.560790058960113811e+03 5.177374819271408057e+01
8.400000000000000000e+01 1.535144310720612793e+03 5.193028056978257467e+01
8.500000000000000000e+01 1.510430926317628973e+03 5.217162565787855755e+01
8.600000000000000000e+01 1.486577304649866164e+03 5.247061510228537884e+01
8.700000000000000000e+01 1.463503421475936648e+03 5.280494109805881919e+01
8.800000000000000000e+01 1.441121322333851140e+03 5.315663521587265450e+01
8.900000000000000000e+01 1.419337564294024332e+03 5.351145088440213726e+01
9.000000000000000000e+01 1.398051962887677973e+03 5.385809151269099004e+01
9.100000000000000000e+01 1.377161221013457407e+03 5.418744830826685188e+01
9.200000000000000000e+01 1.356558782137793514e+03 5.449192394215105395e+01
9.300000000000000000e+01 1.336138163812077892e+03 5.476509323372756910e+01
9.400000000000000000e+01 1.315793107382590279e+03 5.500434284104068894e+01
9.500000000000000000e+01 1.295420881788003726e+03 5.520903615540115084e+01
9.600000000000000000e+01 1.274924708312893017e+03 5.537860922015701703e+01
9.700000000000000000e+01 1.254215946613330061e+03 5.551258790320586911e+01
9.800000000000000000e+01 1.233214200491589054e+03 5.561047463863461360e+01
9.900000000000000000e+01 1.211850320473905413e+03 5.567219771071663814e+01
1.000000000000000000e+02 1.190064129695453403e+03 5.569807076200133622e+01
1.010000000000000000e+02 1.167807160704786838e+03 5.568939640695545990e+01
1.020000000000000000e+02 1.145041129851832466e+03 5.564873799768879081e+01
1.030000000000000000e+02 1.121736787139465150e+03 5.558036442662621823e+01
1.040000000000000000e+02 1.097876590844008433e+03 5.549089862839852572e+01
1.050000000000000000e+02 1.073450755369510489e+03 5.538965056123493724e+01
1.060000000000000000e+02 1.048458459940643024e+03 5.528920848603828375e+01
1.070000000000000000e+02 1.022908364787382766e+03 5.520578581946621455e+01
1.080000000000000000e+02 9.968160520446283499e+02 5.515951271873250050e+01
1.090000000000000000e+02 9.702047815142987019e+02 5.517453694698738786e+01
1.100000000000000000e+02 9.431062863908510963e+02 5.527852034098781075e+01
1.110000000000000000e+02 9.155587504381052213e+02 5.550214278117162792e+01
1.120000000000000000e+02 8.876069339247879952e+02 5.587811528075130951e+01
1.130000000000000000e+02 8.593035096696099799e+02 5.643890506303080912e+01
1.140000000000000000e+02 8.307075995662535206e+02 5.721497401258348248e+01
1.150000000000000000e+02 8.018850114598023993e+02 5.823234154040284949e+01
1.160000000000000000e+02 7.729083174389055557e+02 5.951024784323309547e+01
1.170000000000000000e+02 7.438571791203471548e+02 6.105846688637168285e+01
1.180000000000000000e+02 7.148180693282644143e+02 6.287578197033782601e+01
1.190000000000000000e+02 6.858843673399926502e+02 6.494930265581324136e+01
1.200000000000000000e+02 6.571565466364511394e+02 6.725419373239415677e+01
1.210000000000000000e+02 6.287422959067304191e+02 6.975429858432285357e+01
1.220000000000000000e+02 6.007567782902225417e+02 7.240340928347140448e+01
1.230000000000000000e+02 5.733227136091429657e+02 7.514693189535286422e+01
1.240000000000000000e+02 5.465700836502014681e+02 7.792409149246878997e+01
1.250000000000000000e+02 5.206369025310680172e+02 8.067065069432717905e+01
1.260000000000000000e+02 4.956692074935819505e+02 8.332207054112402034e+01
1.270000000000000000e+02 4.718212583882147442e+02 8.581765697384034297e+01
1.280000000000000000e+02 4.492557499657620497e+02 8.810609959281586612e+01
1.290000000000000000e+02 4.281440382422300104e+02 9.015307789135725614e+01
1.300000000000000000e+02 4.086559870853887446e+02 9.195724143496100567e+01
1.310000000000000000e+02 3.908564611430545028e+02 9.361111081373044840e+01
1.320000000000000000e+02 3.747337836697603848e+02 9.527205291914006580e+01
1.330000000000000000e+02 3.602597928900795523e+02 9.711696017644675294e+01
1.340000000000000000e+02 3.473905132074235667e+02 9.932835536014476929e+01
1.350000000000000000e+02 3.360625436124223029e+02 1.020761608198149446e+02
1.360000000000000000e+02 3.261951782155134083e+02 1.054990340797122599e+02
1.370000000000000000e+02 3.176885981769868295e+02 1.096865947580573248e+02
1.380000000000000000e+02 3.104235244910213396e+02 1.146672189227948451e+02
1.390000000000000000e+02 3.042599881491184419e+02 1.204026088575969311e+02
1.400000000000000000e+02 2.990340754404626864e+02 1.267880318077687036e+02
1.410000000000000000e+02 2.945610829632905165e+02 1.336623633671396760e+02
1.420000000000000000e+02 2.906317461761844356e+02 1.408154221675560507e+02
1.430000000000000000e+02 2.870110519475083493e+02 1.479972331947039095e+02
1.440000000000000000e+02 2.834379643478328603e+02 1.549251170589154754e+02
1.450000000000000000e+02 2.796228750010227486e+02 1.612888516416554125e+02
1.460000000000000000e+02 2.752465043952441874e+02 1.667530086837966792e+02
1.470000000000000000e+02 2.699551398260143742e+02 1.709547510177049787e+02
1.480000000000000000e+02 2.633620012919893156e+02 1.735087938693326635e+02
1.490000000000000000e+02 2.551129915070317793e+02 1.740519469883944055e+02
1.500000000000000000e+02 2.452542178227459431e+02 1.725099718042288544e+02
1.510000000000000000e+02 2.340022857359920749e+02 1.689452381564761652e+02
1.520000000000000000e+02 2.215993713507115217e+02 1.634511315203081381e+02
1.530000000000000000e+02 2.083150833916119211e+02 1.561490752848714010e+02
1.540000000000000000e+02 1.944530010343515869e+02 1.471983545801590196e+02
1.550000000000000000e+02 1.803520391418123268e+02 1.367964543357630589e+02
1.560000000000000000e+02 1.663969006509178143e+02 1.252073441838980443e+02
1.570000000000000000e+02 1.530288995223296524e+02 1.128024901887722677e+02
1.580000000000000000e+02 1.407604219221879305e+02 1.001521680838279451e+02
1.590000000000000000e+02 1.302070582385296973e+02 8.820197577478461426e+01
1.600000000000000000e+02 1.221259296283257072e+02 7.857861148712741794e+01
1.610000000000000000e+02 1.174946267309212828e+02 7.386637607184893284e+01
1.620000000000000000e+02 1.176567507193521323e+02 7.713368947970242573e+01
1.630000000000000000e+02 1.239080666078519357e+02 8.989196724399259608e+01
1.640000000000000000e+02 1.367496088258997986e+02 1.112108912994369945e+02
1.650000000000000000e+02 1.571521895018570945e+02 1.403498245324893219e+02
